{
    "results": [
        {
            "vote_count": 1146,
            "id": 420817,
            "video": false,
            "vote_average": 7.2,
            "title": "Aladdin",
            "popularity": 364.955,
            "poster_path": "/3iYQTLGoy7QnjcUYRJy4YrAgGvp.jpg",
            "original_language": "en",
            "original_title": "Aladdin",
            "genre_ids": [
                12,
                14,
                10749,
                35,
                10751
            ],
            "backdrop_path": "/v4yVTbbl8dE1UP2dWu5CLyaXOku.jpg",
            "adult": false,
            "overview": "A kindhearted street urchin named Aladdin embarks on a magical adventure after finding a lamp that releases a wisecracking genie while a power-hungry Grand Vizier vies for the same lamp that has the power to make their deepest wishes come true.",
            "release_date": "2019-05-22"
        },
        {
            "vote_count": 329,
            "id": 373571,
            "video": false,
            "vote_average": 6.5,
            "title": "Godzilla: King of the Monsters",
            "popularity": 327.949,
            "poster_path": "/pU3bnutJU91u3b4IeRPQTOP8jhV.jpg",
            "original_language": "en",
            "original_title": "Godzilla: King of the Monsters",
            "genre_ids": [
                878,
                53,
                28
            ],
            "backdrop_path": "/uovH5k4BAEPqXqxgwVrTtqH169g.jpg",
            "adult": false,
            "overview": "The new story follows the heroic efforts of the crypto-zoological agency Monarch as its members face off against a battery of god-sized monsters, including the mighty Godzilla, who collides with Mothra, Rodan, and his ultimate nemesis, the three-headed King Ghidorah. When these ancient super-species—thought to be mere myths—rise again, they all vie for supremacy, leaving humanity’s very existence hanging in the balance.",
            "release_date": "2019-05-29"
        },
        {
            "vote_count": 882,
            "id": 458156,
            "video": false,
            "vote_average": 7.3,
            "title": "John Wick: Chapter 3 – Parabellum",
            "popularity": 238.643,
            "poster_path": "/ziEuG1essDuWuC5lpWUaw1uXY2O.jpg",
            "original_language": "en",
            "original_title": "John Wick: Chapter 3 – Parabellum",
            "genre_ids": [
                80,
                28,
                53
            ],
            "backdrop_path": "/vVpEOvdxVBP2aV166j5Xlvb5Cdc.jpg",
            "adult": false,
            "overview": "Super-assassin John Wick returns with a $14 million price tag on his head and an army of bounty-hunting killers on his trail. After killing a member of the shadowy international assassin’s guild, the High Table, John Wick is excommunicado, but the world’s most ruthless hit men and women await his every turn.",
            "release_date": "2019-05-15"
        },
        {
            "vote_count": 34,
            "id": 320288,
            "video": false,
            "vote_average": 6.3,
            "title": "Dark Phoenix",
            "popularity": 181.976,
            "poster_path": "/kZv92eTc0Gg3mKxqjjDAM73z9cy.jpg",
            "original_language": "en",
            "original_title": "Dark Phoenix",
            "genre_ids": [
                878,
                12,
                28
            ],
            "backdrop_path": "/cjRUhKyt2Jo3V1KNzc5tpPNfccG.jpg",
            "adult": false,
            "overview": "The X-Men face their most formidable and powerful foe when one of their own, Jean Grey, starts to spiral out of control. During a rescue mission in outer space, Jean is nearly killed when she's hit by a mysterious cosmic force. Once she returns home, this force not only makes her infinitely more powerful, but far more unstable. The X-Men must now band together to save her soul and battle aliens that want to use Grey's new abilities to rule the galaxy.",
            "release_date": "2019-06-05"
        },
        {
            "vote_count": 62,
            "id": 502416,
            "video": false,
            "vote_average": 5.7,
            "title": "Ma",
            "popularity": 181.277,
            "poster_path": "/6n7ASmQ1wY2cxTubFFGlcvPpyk7.jpg",
            "original_language": "en",
            "original_title": "Ma",
            "genre_ids": [
                53,
                27
            ],
            "backdrop_path": "/mBOv5YrX5QGr5CusK0PKSHuxOt9.jpg",
            "adult": false,
            "overview": "Sue Ann is a loner who keeps to herself in her quiet Ohio town. One day, she is asked by Maggie, a new teenager in town, to buy some booze for her and her friends, and Sue Ann sees the chance to make some unsuspecting, if younger, friends of her own.",
            "release_date": "2019-05-29"
        },
        {
            "vote_count": 6504,
            "id": 299534,
            "video": false,
            "vote_average": 8.5,
            "title": "Avengers: Endgame",
            "popularity": 139.699,
            "poster_path": "/or06FN3Dka5tukK1e9sl16pB3iy.jpg",
            "original_language": "en",
            "original_title": "Avengers: Endgame",
            "genre_ids": [
                12,
                878,
                28
            ],
            "backdrop_path": "/7RyHsO4yDXtBv1zUU3mTpHeQ0d5.jpg",
            "adult": false,
            "overview": "After the devastating events of Avengers: Infinity War, the universe is in ruins due to the efforts of the Mad Titan, Thanos. With the help of remaining allies, the Avengers must assemble once more in order to undo Thanos' actions and restore order to the universe once and for all, no matter what consequences may be in store.",
            "release_date": "2019-04-24"
        },
        {
            "vote_count": 257,
            "id": 504608,
            "video": false,
            "vote_average": 7.7,
            "title": "Rocketman",
            "popularity": 137.299,
            "poster_path": "/f4FF18ia7yTvHf2izNrHqBmgH8U.jpg",
            "original_language": "en",
            "original_title": "Rocketman",
            "genre_ids": [
                10402,
                18
            ],
            "backdrop_path": "/oAr5bgf49vxga9etWoQpAeRMvhp.jpg",
            "adult": false,
            "overview": "The story of Elton John's life, from his years as a prodigy at the Royal Academy of Music through his influential and enduring musical partnership with Bernie Taupin.",
            "release_date": "2019-05-22"
        },
        {
            "vote_count": 32,
            "id": 412117,
            "video": false,
            "vote_average": 6.2,
            "title": "The Secret Life of Pets 2",
            "popularity": 112.672,
            "poster_path": "/q3mKnSkzp1doIsCye6ap4KIUAbu.jpg",
            "original_language": "en",
            "original_title": "The Secret Life of Pets 2",
            "genre_ids": [
                12,
                16,
                35,
                10751
            ],
            "backdrop_path": "/etaok7q2E5tV36oXe7GQzhUQ4fX.jpg",
            "adult": false,
            "overview": "What happens with our pets when we’re not home? This movie continues the original movie with Max and his friends.",
            "release_date": "2019-05-24"
        },
        {
            "vote_count": 1093,
            "id": 447404,
            "video": false,
            "vote_average": 7,
            "title": "Pokémon Detective Pikachu",
            "popularity": 91.888,
            "poster_path": "/wgQ7APnFpf1TuviKHXeEe3KnsTV.jpg",
            "original_language": "en",
            "original_title": "Pokémon Detective Pikachu",
            "genre_ids": [
                9648,
                10751,
                35,
                878,
                28,
                12
            ],
            "backdrop_path": "/nDP33LmQwNsnPv29GQazz59HjJI.jpg",
            "adult": false,
            "overview": "In a world where people collect pocket-size monsters (Pokémon) to do battle, a boy comes across an intelligent monster who seeks to be a detective.",
            "release_date": "2019-05-03"
        },
        {
            "vote_count": 16,
            "id": 529983,
            "video": false,
            "vote_average": 4.8,
            "title": "The Poison Rose",
            "popularity": 88.647,
            "poster_path": "/gSzyUmg719TgAxarFZYWjLLMqvS.jpg",
            "original_language": "en",
            "original_title": "The Poison Rose",
            "genre_ids": [
                80,
                9648
            ],
            "backdrop_path": "/3foyl4i78mZoeBb8EQ0RR5axu01.jpg",
            "adult": false,
            "overview": "A down-on-his-luck PI is hired by his old flame to investigate a murder. But while the case at first appears routine, it slowly reveals itself to be a complex interwoven web of crimes, suspects and dead bodies.",
            "release_date": "2019-05-23"
        },
        {
            "vote_count": 95,
            "id": 400157,
            "video": false,
            "vote_average": 6.2,
            "title": "Wonder Park",
            "popularity": 81.861,
            "poster_path": "/8KomINZhIuJeB4oB7k7tkq8tmE.jpg",
            "original_language": "en",
            "original_title": "Wonder Park",
            "genre_ids": [
                35,
                16,
                12,
                10751,
                14
            ],
            "backdrop_path": "/nJyAdKPnW15IAvC6sLBTE0lp6Dv.jpg",
            "adult": false,
            "overview": "The story of a magnificent amusement park where the imagination of a wildly creative girl named June comes alive.",
            "release_date": "2019-03-14"
        },
        {
            "vote_count": 169,
            "id": 531309,
            "video": false,
            "vote_average": 5.6,
            "title": "Brightburn",
            "popularity": 69.708,
            "poster_path": "/sJWwkYc9ajwnPRSkqj8Aue5JbKz.jpg",
            "original_language": "en",
            "original_title": "Brightburn",
            "genre_ids": [
                27,
                878,
                18,
                53
            ],
            "backdrop_path": "/uHEI6v8ApQusjbaRZ8o7WcLYeWb.jpg",
            "adult": false,
            "overview": "What if a child from another world crash-landed on Earth, but instead of becoming a hero to mankind, he proved to be something far more sinister?",
            "release_date": "2019-05-09"
        },
        {
            "vote_count": 625,
            "id": 527641,
            "video": false,
            "vote_average": 8.1,
            "title": "Five Feet Apart",
            "popularity": 65.055,
            "poster_path": "/kreTuJBkUjVWePRfhHZuYfhNE1T.jpg",
            "original_language": "en",
            "original_title": "Five Feet Apart",
            "genre_ids": [
                10749,
                18
            ],
            "backdrop_path": "/d7wa3VpUpKDQ7GG9EMw8zSJCFoI.jpg",
            "adult": false,
            "overview": "Seventeen-year-old Stella spends most of her time in the hospital as a cystic fibrosis patient. Her life is full of routines, boundaries and self-control -- all of which get put to the test when she meets Will, an impossibly charming teen who has the same illness. There's an instant flirtation, though restrictions dictate that they must maintain a safe distance between them. As their connection intensifies, so does the temptation to throw the rules out the window and embrace that attraction.",
            "release_date": "2019-03-15"
        },
        {
            "vote_count": 1048,
            "id": 537915,
            "video": false,
            "vote_average": 5.9,
            "title": "After",
            "popularity": 60.967,
            "poster_path": "/u3B2YKUjWABcxXZ6Nm9h10hLUbh.jpg",
            "original_language": "en",
            "original_title": "After",
            "genre_ids": [
                18,
                10749
            ],
            "backdrop_path": "/997ToEZvF2Obp9zNZbY5ELVnmrW.jpg",
            "adult": false,
            "overview": "A young woman falls for a guy with a dark secret and the two embark on a rocky relationship.",
            "release_date": "2019-04-11"
        },
        {
            "vote_count": 190,
            "id": 505600,
            "video": false,
            "vote_average": 7.2,
            "title": "Booksmart",
            "popularity": 56.405,
            "poster_path": "/2aSxRDmisJP90H3S0aocyuQIe4z.jpg",
            "original_language": "en",
            "original_title": "Booksmart",
            "genre_ids": [
                35,
                18,
                10749
            ],
            "backdrop_path": "/wcAqndL2MkIjPrCrYeuE794weNE.jpg",
            "adult": false,
            "overview": "Two academic teenage superstars realize, on the eve of their high school graduation, that they should have worked less and played more. Determined to never fall short of their peers, the girls set out on a mission to cram four years of fun into one night.",
            "release_date": "2019-05-24"
        },
        {
            "vote_count": 106,
            "id": 535581,
            "video": false,
            "vote_average": 5.7,
            "title": "The Dead Don't Die",
            "popularity": 52.592,
            "poster_path": "/ycMSfP8KRFsVUWfbSxSFpD97QfD.jpg",
            "original_language": "en",
            "original_title": "The Dead Don't Die",
            "genre_ids": [
                35,
                27
            ],
            "backdrop_path": "/cXyfAViYly0Lk2CVpEKgYbt9wKQ.jpg",
            "adult": false,
            "overview": "In a small peaceful town, zombies suddenly rise to terrorize the town. Now three bespectacled police officers and a strange Scottish morgue expert must band together to defeat the undead.",
            "release_date": "2019-05-15"
        },
        {
            "vote_count": 339,
            "id": 480414,
            "video": false,
            "vote_average": 5.5,
            "title": "The Curse of La Llorona",
            "popularity": 48.397,
            "poster_path": "/jhZlXSnFUpNiLAek9EkPrtLEWQI.jpg",
            "original_language": "en",
            "original_title": "The Curse of La Llorona",
            "genre_ids": [
                53,
                27,
                9648
            ],
            "backdrop_path": "/2OKpu0Z6zD4meBQ8bYZb4FtF1bi.jpg",
            "adult": false,
            "overview": "A social worker dealing with the disappearance of two children fears for her own family after beginning the investigation.",
            "release_date": "2019-04-17"
        },
        {
            "vote_count": 465,
            "id": 456740,
            "video": false,
            "vote_average": 4.9,
            "title": "Hellboy",
            "popularity": 46.096,
            "poster_path": "/bk8LyaMqUtaQ9hUShuvFznQYQKR.jpg",
            "original_language": "en",
            "original_title": "Hellboy",
            "genre_ids": [
                28,
                12,
                14
            ],
            "backdrop_path": "/5BkSkNtfrnTuKOtTaZhl8avn4wU.jpg",
            "adult": false,
            "overview": "Hellboy comes to England, where he must defeat Nimue, Merlin's consort and the Blood Queen. But their battle will bring about the end of the world, a fate he desperately tries to turn away.",
            "release_date": "2019-04-10"
        },
        {
            "vote_count": 689,
            "id": 157433,
            "video": false,
            "vote_average": 5.8,
            "title": "Pet Sematary",
            "popularity": 44.574,
            "poster_path": "/7SPhr7Qj39vbnfF9O2qHRYaKHAL.jpg",
            "original_language": "en",
            "original_title": "Pet Sematary",
            "genre_ids": [
                53,
                9648,
                27
            ],
            "backdrop_path": "/n2aX63BmW7zIKgKJ58e6rKlSsdi.jpg",
            "adult": false,
            "overview": "Louis Creed, his wife Rachel and their two children Gage and Ellie move to a rural home where they are welcomed and enlightened about the eerie 'Pet Sematary' located nearby. After the tragedy of their cat being killed by a truck, Louis resorts to burying it in the mysterious pet cemetery, which is definitely not as it seems, as it proves to the Creeds that sometimes dead is better.",
            "release_date": "2019-04-04"
        },
        {
            "vote_count": 229,
            "id": 532671,
            "video": false,
            "vote_average": 5.9,
            "title": "The Prodigy",
            "popularity": 43.597,
            "poster_path": "/yyejodyk3lWncVjVhhrEkPctY9o.jpg",
            "original_language": "en",
            "original_title": "The Prodigy",
            "genre_ids": [
                27,
                53
            ],
            "backdrop_path": "/oxTgovZ3TQ8LLxifUm16ROMULP5.jpg",
            "adult": false,
            "overview": "A mother concerned about her young son's disturbing behavior thinks something supernatural may be affecting him.",
            "release_date": "2019-02-06"
        }
    ],
    "page": 1,
    "total_results": 985,
    "dates": {
        "maximum": "2019-06-11",
        "minimum": "2019-04-24"
    },
    "total_pages": 50
}
